iAntenna,iConfiguration,frequency,time,iRay,Trad,R,phi,Z,rho,coll_absp
 +0    +0 +0.330000E+11 +0.100000E+01   +1 +0.884538E+00 +0.595049E+00 +0.230029E-01 +0.133539E-01 +0.195996E+00 +0.000000E+00
 +0    +0 +0.330000E+11 +0.100000E+01   +2 +0.796158E+00 +0.597217E+00 -0.106884E+00 +0.401367E-02 +0.214346E+00 +0.000000E+00
 +0    +0 +0.330000E+11 +0.100000E+01   +3 +0.831090E+00 +0.592635E+00 -0.143054E+00 +0.295677E-02 +0.179747E+00 +0.000000E+00
 +0    +0 +0.330000E+11 +0.100000E+01   +4 +0.819716E+00 +0.596022E+00 +0.113416E+00 +0.192768E-01 +0.212562E+00 +0.000000E+00
 +0    +0 +0.330000E+11 +0.100000E+01   +5 +0.780152E+00 +0.605667E+00 -0.180023E+00 +0.354503E-02 +0.280421E+00 +0.000000E+00
